Complications and Deaths
…
library(dplyr)

hub_scores <- impacts_df %>%
  group_by(shocked_hospital) %>%
  summarize(total_spillover = sum(abs(delta[-shocked_hospital])), .groups = "drop") %>%
  arrange(desc(total_spillover))

print(hub_scores)

# A tibble: 2,385 × 2
   shocked_hospital total_spillover
              <int>           <dbl>
 1              529          0.0593
 2              931          0.0560
 3             1240          0.0559
 4              796          0.0538
 5             1975          0.0517
 6             2226          0.0515
 7             1292          0.0513
 8              146          0.0500
 9             1250          0.0497
10             1912          0.0489
# ℹ 2,375 more rows
…
library(dplyr)

hub_scores <- impacts_df %>%
  group_by(shocked_hospital) %>%
  summarize(total_spillover = sum(abs(delta[-shocked_hospital])), .groups = "drop") %>%
  arrange(desc(total_spillover))

print(hub_scores)

# A tibble: 2,175 × 2
   shocked_hospital total_spillover
              <int>           <dbl>
 1             1865           0.711
 2              141           0.703
 3               56           0.693
 4             1189           0.664
 5             1120           0.653
 6              526           0.641
 7              879           0.640
 8             1858           0.632
 9             1095           0.622
10              505           0.621
# ℹ 2,165 more rows
…
